%YAML 1.1
%TAG !u! tag:unity3d.com,2011:
--- !u!1045 &1
EditorBuildSettings:
  m_ObjectHideFlags: 0
  serializedVersion: 2
  m_Scenes:
  - enabled: 1
    path: Assets/Scenes/PreLoad.unity
    guid: 4ab47c807f83d91498f8b606d20bb0a1
  - enabled: 1
    path: Assets/Scenes/LevelField.unity
    guid: adf7f98fb5f3920418cd9a453c134253
  - enabled: 1
    path: Assets/Scenes/Levels.unity
    guid: 86f9c93c1f0cc78408dbc88e9fac05e3
  - enabled: 1
    path: Assets/Scenes/Menu.unity
    guid: 5ce92187a11742944a37dbd225ea8a8e
  - enabled: 1
    path: Assets/Scenes/PlayField.unity
    guid: 2a25d418cf535e0499a2369166e68fdb
  m_configObjects: {}
